simulations/stochastic_system/stochastic_processor.vcd
$date
	Fri Nov 21 17:22:19 2025
$end
$version
	Icarus Verilog
$end
$timescale
	1ps
$end
$scope module tb_stochastic_processor_slice $end
$var wire 8 ! res [7:0] $end
$var wire 1 " done $end
$var reg 8 # byte1 [7:0] $end
$var reg 8 $ byte2 [7:0] $end
$var reg 1 % clk $end
$var reg 10 & public_key1 [9:0] $end
$var reg 10 ' public_key2 [9:0] $end
$var reg 1 ( rst_n $end
$var reg 1 ) start $end
$scope module uut $end
$var wire 8 * byte1 [7:0] $end
$var wire 8 + byte2 [7:0] $end
$var wire 1 % clk $end
$var wire 11 , ct_modulus [10:0] $end
$var wire 9 - pt_modulus [8:0] $end
$var wire 10 . public_key1 [9:0] $end
$var wire 10 / public_key2 [9:0] $end
$var wire 1 ( rst_n $end
$var wire 1 ) start $end
$var wire 1 0 valid_b $end
$var wire 1 1 valid_a $end
$var wire 1 2 sum_b $end
$var wire 1 3 sum_a $end
$var wire 1 4 ser_ct2b $end
$var wire 1 5 ser_ct2a $end
$var wire 1 6 ser_ct1b $end
$var wire 1 7 ser_ct1a $end
$var wire 1 8 sel_b $end
$var wire 1 9 sel_a $end
$var wire 8 : res [7:0] $end
$var wire 1 ; ready_signal $end
$var wire 1 < processing $end
$var wire 10 = deser_b [9:0] $end
$var wire 10 > deser_a [9:0] $end
$var wire 20 ? ct_sum [19:0] $end
$var wire 20 @ ct2 [19:0] $end
$var wire 20 A ct1 [19:0] $end
$var reg 11 B bit_counter [10:0] $end
$var reg 1 " done $end
$scope module adder_a $end
$var wire 1 % clk $end
$var wire 1 5 serial_line2 $end
$var wire 1 7 serial_line1 $end
$var wire 1 9 sel $end
$var reg 1 3 sum $end
$upscope $end
$scope module adder_b $end
$var wire 1 % clk $end
$var wire 1 4 serial_line2 $end
$var wire 1 6 serial_line1 $end
$var wire 1 8 sel $end
$var reg 1 2 sum $end
$upscope $end
$scope module ct1_a $end
$var wire 1 % clk $end
$var wire 1 ( rst_n $end
$var wire 10 C seed [9:0] $end
$var wire 10 D val [9:0] $end
$var wire 1 7 ser_output $end
$var wire 10 E random_number [9:0] $end
$scope module comp $end
$var wire 10 F val2 [9:0] $end
$var wire 10 G val1 [9:0] $end
$var wire 1 7 res $end
$upscope $end
$scope module rng $end
$var wire 1 % clk $end
$var wire 1 H feedback_bit $end
$var wire 10 I lfsr_out [9:0] $end
$var wire 1 ( rst_n $end
$var wire 10 J seed [9:0] $end
$var reg 10 K lfsr_reg [9:0] $end
$upscope $end
$upscope $end
$scope module ct1_b $end
$var wire 1 % clk $end
$var wire 1 ( rst_n $end
$var wire 10 L seed [9:0] $end
$var wire 10 M val [9:0] $end
$var wire 1 6 ser_output $end
$var wire 10 N random_number [9:0] $end
$scope module comp $end
$var wire 10 O val2 [9:0] $end
$var wire 10 P val1 [9:0] $end
$var wire 1 6 res $end
$upscope $end
$scope module rng $end
$var wire 1 % clk $end
$var wire 1 Q feedback_bit $end
$var wire 10 R lfsr_out [9:0] $end
$var wire 1 ( rst_n $end
$var wire 10 S seed [9:0] $end
$var reg 10 T lfsr_reg [9:0] $end
$upscope $end
$upscope $end
$scope module ct2_a $end
$var wire 1 % clk $end
$var wire 1 ( rst_n $end
$var wire 10 U seed [9:0] $end
$var wire 10 V val [9:0] $end
$var wire 1 5 ser_output $end
$var wire 10 W random_number [9:0] $end
$scope module comp $end
$var wire 10 X val2 [9:0] $end
$var wire 10 Y val1 [9:0] $end
$var wire 1 5 res $end
$upscope $end
$scope module rng $end
$var wire 1 % clk $end
$var wire 1 Z feedback_bit $end
$var wire 10 [ lfsr_out [9:0] $end
$var wire 1 ( rst_n $end
$var wire 10 \ seed [9:0] $end
$var reg 10 ] lfsr_reg [9:0] $end
$upscope $end
$upscope $end
$scope module ct2_b $end
$var wire 1 % clk $end
$var wire 1 ( rst_n $end
$var wire 10 ^ seed [9:0] $end
$var wire 10 _ val [9:0] $end
$var wire 1 4 ser_output $end
$var wire 10 ` random_number [9:0] $end
$scope module comp $end
$var wire 10 a val2 [9:0] $end
$var wire 10 b val1 [9:0] $end
$var wire 1 4 res $end
$upscope $end
$scope module rng $end
$var wire 1 % clk $end
$var wire 1 c feedback_bit $end
$var wire 10 d lfsr_out [9:0] $end
$var wire 1 ( rst_n $end
$var wire 10 e seed [9:0] $end
$var reg 10 f lfsr_reg [9:0] $end
$upscope $end
$upscope $end
$scope module decryptor $end
$var wire 20 g ciphertext [19:0] $end
$var wire 11 h ct_modulus [10:0] $end
$var wire 9 i pt_modulus [8:0] $end
$var wire 8 j res [7:0] $end
$var parameter 32 k secret_key $end
$var reg 2 l delta_shift [1:0] $end
$var reg 20 m res_i [19:0] $end
$upscope $end
$scope module des1 $end
$var wire 1 % clk $end
$var wire 1 ; ready $end
$var wire 1 3 ser_input $end
$var reg 1 n active $end
$var reg 10 o clk_cnt [9:0] $end
$var reg 10 p count [9:0] $end
$var reg 10 q res [9:0] $end
$var reg 1 1 valid $end
$upscope $end
$scope module des2 $end
$var wire 1 % clk $end
$var wire 1 ; ready $end
$var wire 1 2 ser_input $end
$var reg 1 r active $end
$var reg 10 s clk_cnt [9:0] $end
$var reg 10 t count [9:0] $end
$var reg 10 u res [9:0] $end
$var reg 1 0 valid $end
$upscope $end
$scope module hep1 $end
$var wire 11 v ct_modulus [10:0] $end
$var wire 3 w delta [2:0] $end
$var wire 1 x error $end
$var wire 8 y pixel_byte [7:0] $end
$var wire 9 z pt_modulus [8:0] $end
$var wire 10 { public_key [9:0] $end
$var wire 20 | ciphertext [19:0] $end
$var parameter 32 } secret_key $end
$var reg 10 ~ b [9:0] $end
$upscope $end
$scope module hep2 $end
$var wire 11 !" ct_modulus [10:0] $end
$var wire 3 "" delta [2:0] $end
$var wire 1 #" error $end
$var wire 8 $" pixel_byte [7:0] $end
$var wire 9 %" pt_modulus [8:0] $end
$var wire 10 &" public_key [9:0] $end
$var wire 20 '" ciphertext [19:0] $end
$var parameter 32 (" secret_key $end
$var reg 10 )" b [9:0] $end
$upscope $end
$scope module sumsel_a $end
$var wire 1 % clk $end
$var wire 1 ( rst_n $end
$var wire 10 *" seed [9:0] $end
$var wire 10 +" val [9:0] $end
$var wire 1 9 ser_output $end
$var wire 10 ," random_number [9:0] $end
$scope module comp $end
$var wire 10 -" val2 [9:0] $end
$var wire 10 ." val1 [9:0] $end
$var wire 1 9 res $end
$upscope $end
$scope module rng $end
$var wire 1 % clk $end
$var wire 1 /" feedback_bit $end
$var wire 10 0" lfsr_out [9:0] $end
$var wire 1 ( rst_n $end
$var wire 10 1" seed [9:0] $end
$var reg 10 2" lfsr_reg [9:0] $end
$upscope $end
$upscope $end
$scope module sumsel_b $end
$var wire 1 % clk $end
$var wire 1 ( rst_n $end
$var wire 10 3" seed [9:0] $end
$var wire 10 4" val [9:0] $end
$var wire 1 8 ser_output $end
$var wire 10 5" random_number [9:0] $end
$scope module comp $end
$var wire 10 6" val2 [9:0] $end
$var wire 10 7" val1 [9:0] $end
$var wire 1 8 res $end
$upscope $end
$scope module rng $end
$var wire 1 % clk $end
$var wire 1 8" feedback_bit $end
$var wire 10 9" lfsr_out [9:0] $end
$var wire 1 ( rst_n $end
$var wire 10 :" seed [9:0] $end
$var reg 10 ;" lfsr_reg [9:0] $end
$upscope $end
$upscope $end
$upscope $end
$scope task test_addition $end
$var reg 32 <" end_time [31:0] $end
$var reg 9 =" expected [8:0] $end
$var reg 10 >" pk1 [9:0] $end
$var reg 10 ?" pk2 [9:0] $end
$var reg 32 @" start_time [31:0] $end
$var reg 8 A" val1 [7:0] $end
$var reg 8 B" val2 [7:0] $end
$upscope $end
$upscope $end
$enddefinitions $end
$comment Show the parameter values. $end
$dumpall
b111 ("
b111 }
b111 k
$end
#0
$dumpvars
bx B"
bx A"
bx @"
bx ?"
bx >"
bx ="
bx <"
b1000000010 ;"
b1000000010 :"
b1000000010 9"
18"
b1000000010 7"
b1000000000 6"
b1000000010 5"
b1000000000 4"
b1000000010 3"
b1000000100 2"
b1000000100 1"
b1000000100 0"
1/"
b1000000100 ."
b1000000000 -"
b1000000100 ,"
b1000000000 +"
b1000000100 *"
b1 )"
b1 '"
b0 &"
b100000000 %"
b0 $"
1#"
b100 ""
b10000000000 !"
b1 ~
b1 |
b0 {
b100000000 z
b0 y
1x
b100 w
b10000000000 v
bx u
bx t
bx s
xr
bx q
bx p
bx o
xn
b0xxxxxxxxxxxxxxxxxx m
b10 l
bx j
b100000000 i
b10000000000 h
bx g
b1000001000 f
b1000001000 e
b1000001000 d
1c
b1000001000 b
b1 a
b1000001000 `
b1 _
b1000001000 ^
b1000100000 ]
b1000100000 \
b1000100000 [
1Z
b1000100000 Y
b0 X
b1000100000 W
b0 V
b1000100000 U
b1010000000 T
b1010000000 S
b1010000000 R
1Q
b1010000000 P
b1 O
b1010000000 N
b1 M
b1010000000 L
b1000000000 K
b1000000000 J
b1000000000 I
1H
b1000000000 G
b0 F
b1000000000 E
b0 D
b1000000000 C
b0 B
b1 A
b1 @
bx ?
bx >
bx =
1<
1;
bx :
09
08
07
06
05
04
x3
x2
x1
x0
b0 /
b0 .
b100000000 -
b10000000000 ,
b0 +
b0 *
0)
0(
b0 '
b0 &
0%
b0 $
b0 #
0"
bx !
$end
#5000
03
02
01
1n
b0 p
b0 o
00
1r
b0 t
b0 s
1%
#10000
0%
#15000
1%
#20000
0%
1(
#25000
0Q
0;
b1 B
b1100000001 5"
b1100000001 7"
b1100000001 9"
b1100000001 ;"
b1100000010 ,"
b1100000010 ."
b1100000010 0"
b1100000010 2"
b1100000100 `
b1100000100 b
b1100000100 d
b1100000100 f
b1100010000 W
b1100010000 Y
b1100010000 [
b1100010000 ]
b1101000000 N
b1101000000 P
b1101000000 R
b1101000000 T
b1100000000 E
b1100000000 G
b1100000000 I
b1100000000 K
1%
#30000
0%
#35000
b1110000000 E
b1110000000 G
b1110000000 I
b1110000000 K
b110100000 N
b110100000 P
b110100000 R
b110100000 T
b1110001000 W
b1110001000 Y
b1110001000 [
b1110001000 ]
b1110000010 `
b1110000010 b
b1110000010 d
b1110000010 f
b1110000001 ,"
b1110000001 ."
b1110000001 0"
b1110000001 2"
b1110000000 5"
b1110000000 7"
b1110000000 9"
b1110000000 ;"
b10 B
b1 s
b1 o
1%
#40000
b11110001 _
b11110001 a
b100110 M
b100110 O
b111001000 V
b111001000 X
b1111011 D
b1111011 F
b11110001 )"
b100110 ~
0%
b1110010000011110001 @
b1110010000011110001 '"
b111001000 '
b111001000 /
b111001000 &"
b11110110000100110 A
b11110110000100110 |
b1111011 &
b1111011 .
b1111011 {
b11110 $
b11110 +
b11110 $"
b110010 #
b110010 *
b110010 y
b1010000 ="
b111001000 ?"
b1111011 >"
b11110 B"
b110010 A"
#45000
08"
0/"
0c
0Z
1Q
0H
1;
b0 B
b1111000000 5"
b1111000000 7"
b1111000000 9"
b1111000000 ;"
b1111000000 ,"
b1111000000 ."
b1111000000 0"
b1111000000 2"
b1111000001 `
b1111000001 b
b1111000001 d
b1111000001 f
b1111000100 W
b1111000100 Y
b1111000100 [
b1111000100 ]
b11010000 N
b11010000 P
b11010000 R
b11010000 T
b1111000000 E
b1111000000 G
b1111000000 I
b1111000000 K
b10 o
b10 s
b101101 @"
1)
1%
#50000
0%
#55000
1H
0Q
1Z
1c
1/"
18"
19
18
b111100000 E
b111100000 G
b111100000 I
b111100000 K
b1001101000 N
b1001101000 P
b1001101000 R
b1001101000 T
b111100010 W
b111100010 Y
b111100010 [
b111100010 ]
b111100000 `
b111100000 b
b111100000 d
b111100000 f
b111100000 ,"
b111100000 ."
b111100000 0"
b111100000 2"
b111100000 5"
b111100000 7"
b111100000 9"
b111100000 ;"
0;
b1 B
b0 s
b0 o
0)
1%
#60000
0%
#65000
08"
0/"
0c
0Z
0H
08
09
b10 B
b1011110000 5"
b1011110000 7"
b1011110000 9"
b1011110000 ;"
b1011110000 ,"
b1011110000 ."
b1011110000 0"
b1011110000 2"
b1011110000 `
b1011110000 b
b1011110000 d
b1011110000 f
b1011110001 W
b1011110001 Y
b1011110001 [
b1011110001 ]
b100110100 N
b100110100 P
b100110100 R
b100110100 T
b1011110000 E
b1011110000 G
b1011110000 I
b1011110000 K
b1 o
b1 s
1%
#70000
0%
#75000
1H
1Z
1c
1/"
18"
15
19
18
b101111000 E
b101111000 G
b101111000 I
b101111000 K
b10011010 N
b10011010 P
b10011010 R
b10011010 T
b101111000 W
b101111000 Y
b101111000 [
b101111000 ]
b101111000 `
b101111000 b
b101111000 d
b101111000 f
b101111000 ,"
b101111000 ."
b101111000 0"
b101111000 2"
b101111000 5"
b101111000 7"
b101111000 9"
b101111000 ;"
b11 B
b10 s
b10 o
1%
#80000
0%
#85000
1Q
08
09
05
b100 B
b1010111100 5"
b1010111100 7"
b1010111100 9"
b1010111100 ;"
b1010111100 ,"
b1010111100 ."
b1010111100 0"
b1010111100 2"
b1010111100 `
b1010111100 b
b1010111100 d
b1010111100 f
b1010111100 W
b1010111100 Y
b1010111100 [
b1010111100 ]
b1001101 N
b1001101 P
b1001101 R
b1001101 T
b1010111100 E
b1010111100 G
b1010111100 I
b1010111100 K
13
b11 o
b11 s
1%
#90000
0%
#95000
0H
0Z
0c
0/"
08"
b1101011110 E
b1101011110 G
b1101011110 I
b1101011110 K
b1000100110 N
b1000100110 P
b1000100110 R
b1000100110 T
b1101011110 W
b1101011110 Y
b1101011110 [
b1101011110 ]
b1101011110 `
b1101011110 b
b1101011110 d
b1101011110 f
b1101011110 ,"
b1101011110 ."
b1101011110 0"
b1101011110 2"
b1101011110 5"
b1101011110 7"
b1101011110 9"
b1101011110 ;"
b101 B
b100 s
b1 p
b100 o
03
1%
#100000
0%
#105000
18
19
15
b110 B
b110101111 5"
b110101111 7"
b110101111 9"
b110101111 ;"
b110101111 ,"
b110101111 ."
b110101111 0"
b110101111 2"
b110101111 `
b110101111 b
b110101111 d
b110101111 f
b110101111 W
b110101111 Y
b110101111 [
b110101111 ]
b1100010011 N
b1100010011 P
b1100010011 R
b1100010011 T
b110101111 E
b110101111 G
b110101111 I
b110101111 K
b101 o
b101 s
1%
#110000
0%
#115000
1H
1Z
1c
1/"
18"
14
b11010111 E
b11010111 G
b11010111 I
b11010111 K
b1110001001 N
b1110001001 P
b1110001001 R
b1110001001 T
b11010111 W
b11010111 Y
b11010111 [
b11010111 ]
b11010111 `
b11010111 b
b11010111 d
b11010111 f
b11010111 ,"
b11010111 ."
b11010111 0"
b11010111 2"
b11010111 5"
b11010111 7"
b11010111 9"
b11010111 ;"
b111 B
b110 s
b110 o
13
1%
#120000
0%
#125000
08"
0/"
0c
0Z
0Q
0H
08
09
04
05
b1000 B
b1001101011 5"
b1001101011 7"
b1001101011 9"
b1001101011 ;"
b1001101011 ,"
b1001101011 ."
b1001101011 0"
b1001101011 2"
b1001101011 `
b1001101011 b
b1001101011 d
b1001101011 f
b1001101011 W
b1001101011 Y
b1001101011 [
b1001101011 ]
b1111000100 N
b1111000100 P
b1111000100 R
b1111000100 T
b1001101011 E
b1001101011 G
b1001101011 I
b1001101011 K
12
b10 p
b111 o
b111 s
1%
#130000
0%
#135000
1Q
15
19
18
b100110101 E
b100110101 G
b100110101 I
b100110101 K
b111100010 N
b111100010 P
b111100010 R
b111100010 T
b100110101 W
b100110101 Y
b100110101 [
b100110101 ]
b100110101 `
b100110101 b
b100110101 d
b100110101 f
b100110101 ,"
b100110101 ."
b100110101 0"
b100110101 2"
b100110101 5"
b100110101 7"
b100110101 9"
b100110101 ;"
b1001 B
b1 t
b1000 s
b11 p
b1000 o
02
03
1%
#140000
0%
#145000
0Q
14
b1010 B
b10011010 5"
b10011010 7"
b10011010 9"
b10011010 ;"
b10011010 ,"
b10011010 ."
b10011010 0"
b10011010 2"
b10011010 `
b10011010 b
b10011010 d
b10011010 f
b10011010 W
b10011010 Y
b10011010 [
b10011010 ]
b1011110001 N
b1011110001 P
b1011110001 R
b1011110001 T
b10011010 E
b10011010 G
b10011010 I
b10011010 K
13
b1001 o
b1001 s
1%
#150000
0%
#155000
1H
1Q
1Z
1c
1/"
18"
17
b1001101 E
b1001101 G
b1001101 I
b1001101 K
b101111000 N
b101111000 P
b101111000 R
b101111000 T
b1001101 W
b1001101 Y
b1001101 [
b1001101 ]
b1001101 `
b1001101 b
b1001101 d
b1001101 f
b1001101 ,"
b1001101 ."
b1001101 0"
b1001101 2"
b1001101 5"
b1001101 7"
b1001101 9"
b1001101 ;"
b1011 B
b1010 s
b100 p
b1010 o
12
1%
#160000
0%
#165000
08
09
04
05
07
b1100 B
b1000100110 5"
b1000100110 7"
b1000100110 9"
b1000100110 ;"
b1000100110 ,"
b1000100110 ."
b1000100110 0"
b1000100110 2"
b1000100110 `
b1000100110 b
b1000100110 d
b1000100110 f
b1000100110 W
b1000100110 Y
b1000100110 [
b1000100110 ]
b1010111100 N
b1010111100 P
b1010111100 R
b1010111100 T
b1000100110 E
b1000100110 G
b1000100110 I
b1000100110 K
b101 p
b1011 o
b10 t
b1011 s
1%
#170000
0%
#175000
0Q
b1100010011 E
b1100010011 G
b1100010011 I
b1100010011 K
b1101011110 N
b1101011110 P
b1101011110 R
b1101011110 T
b1100010011 W
b1100010011 Y
b1100010011 [
b1100010011 ]
b1100010011 `
b1100010011 b
b1100010011 d
b1100010011 f
b1100010011 ,"
b1100010011 ."
b1100010011 0"
b1100010011 2"
b1100010011 5"
b1100010011 7"
b1100010011 9"
b1100010011 ;"
b1101 B
b11 t
b1100 s
b110 p
b1100 o
02
03
1%
#180000
0%
#185000
b1110 B
b1110001001 5"
b1110001001 7"
b1110001001 9"
b1110001001 ;"
b1110001001 ,"
b1110001001 ."
b1110001001 0"
b1110001001 2"
b1110001001 `
b1110001001 b
b1110001001 d
b1110001001 f
b1110001001 W
b1110001001 Y
b1110001001 [
b1110001001 ]
b110101111 N
b110101111 P
b110101111 R
b110101111 T
b1110001001 E
b1110001001 G
b1110001001 I
b1110001001 K
b1101 o
b1101 s
1%
#190000
0%
#195000
0H
1Q
0Z
0c
0/"
08"
b1111000100 E
b1111000100 G
b1111000100 I
b1111000100 K
b11010111 N
b11010111 P
b11010111 R
b11010111 T
b1111000100 W
b1111000100 Y
b1111000100 [
b1111000100 ]
b1111000100 `
b1111000100 b
b1111000100 d
b1111000100 f
b1111000100 ,"
b1111000100 ."
b1111000100 0"
b1111000100 2"
b1111000100 5"
b1111000100 7"
b1111000100 9"
b1111000100 ;"
b1111 B
b1110 s
b1110 o
1%
#200000
0%
#205000
18"
1/"
1c
1Z
0Q
1H
18
19
b10000 B
b111100010 5"
b111100010 7"
b111100010 9"
b111100010 ;"
b111100010 ,"
b111100010 ."
b111100010 0"
b111100010 2"
b111100010 `
b111100010 b
b111100010 d
b111100010 f
b111100010 W
b111100010 Y
b111100010 [
b111100010 ]
b1001101011 N
b1001101011 P
b1001101011 R
b1001101011 T
b111100010 E
b111100010 G
b111100010 I
b111100010 K
b1111 o
b1111 s
1%
#210000
0%
#215000
0H
0Z
0c
0/"
08"
09
08
b1011110001 E
b1011110001 G
b1011110001 I
b1011110001 K
b100110101 N
b100110101 P
b100110101 R
b100110101 T
b1011110001 W
b1011110001 Y
b1011110001 [
b1011110001 ]
b1011110001 `
b1011110001 b
b1011110001 d
b1011110001 f
b1011110001 ,"
b1011110001 ."
b1011110001 0"
b1011110001 2"
b1011110001 5"
b1011110001 7"
b1011110001 9"
b1011110001 ;"
b10001 B
b10000 s
b10000 o
1%
#220000
0%
#225000
18"
1/"
1c
1Z
1H
18
19
15
b10010 B
b101111000 5"
b101111000 7"
b101111000 9"
b101111000 ;"
b101111000 ,"
b101111000 ."
b101111000 0"
b101111000 2"
b101111000 `
b101111000 b
b101111000 d
b101111000 f
b101111000 W
b101111000 Y
b101111000 [
b101111000 ]
b10011010 N
b10011010 P
b10011010 R
b10011010 T
b101111000 E
b101111000 G
b101111000 I
b101111000 K
b10001 o
b10001 s
1%
#230000
0%
#235000
1Q
05
09
08
b1010111100 E
b1010111100 G
b1010111100 I
b1010111100 K
b1001101 N
b1001101 P
b1001101 R
b1001101 T
b1010111100 W
b1010111100 Y
b1010111100 [
b1010111100 ]
b1010111100 `
b1010111100 b
b1010111100 d
b1010111100 f
b1010111100 ,"
b1010111100 ."
b1010111100 0"
b1010111100 2"
b1010111100 5"
b1010111100 7"
b1010111100 9"
b1010111100 ;"
b10011 B
b10010 s
b10010 o
13
1%
#240000
0%
#245000
08"
0/"
0c
0Z
0H
b10100 B
b1101011110 5"
b1101011110 7"
b1101011110 9"
b1101011110 ;"
b1101011110 ,"
b1101011110 ."
b1101011110 0"
b1101011110 2"
b1101011110 `
b1101011110 b
b1101011110 d
b1101011110 f
b1101011110 W
b1101011110 Y
b1101011110 [
b1101011110 ]
b1000100110 N
b1000100110 P
b1000100110 R
b1000100110 T
b1101011110 E
b1101011110 G
b1101011110 I
b1101011110 K
03
b111 p
b10011 o
b10011 s
1%
#250000
0%
#255000
15
19
18
b110101111 E
b110101111 G
b110101111 I
b110101111 K
b1100010011 N
b1100010011 P
b1100010011 R
b1100010011 T
b110101111 W
b110101111 Y
b110101111 [
b110101111 ]
b110101111 `
b110101111 b
b110101111 d
b110101111 f
b110101111 ,"
b110101111 ."
b110101111 0"
b110101111 2"
b110101111 5"
b110101111 7"
b110101111 9"
b110101111 ;"
b10101 B
b10100 s
b10100 o
1%
#260000
0%
#265000
18"
1/"
1c
1Z
1H
14
b10110 B
b11010111 5"
b11010111 7"
b11010111 9"
b11010111 ;"
b11010111 ,"
b11010111 ."
b11010111 0"
b11010111 2"
b11010111 `
b11010111 b
b11010111 d
b11010111 f
b11010111 W
b11010111 Y
b11010111 [
b11010111 ]
b1110001001 N
b1110001001 P
b1110001001 R
b1110001001 T
b11010111 E
b11010111 G
b11010111 I
b11010111 K
13
b10101 o
b10101 s
1%
#270000
0%
#275000
0H
0Q
0Z
0c
0/"
08"
05
04
09
08
b1001101011 E
b1001101011 G
b1001101011 I
b1001101011 K
b1111000100 N
b1111000100 P
b1111000100 R
b1111000100 T
b1001101011 W
b1001101011 Y
b1001101011 [
b1001101011 ]
b1001101011 `
b1001101011 b
b1001101011 d
b1001101011 f
b1001101011 ,"
b1001101011 ."
b1001101011 0"
b1001101011 2"
b1001101011 5"
b1001101011 7"
b1001101011 9"
b1001101011 ;"
b10111 B
b10110 s
b1000 p
b10110 o
12
1%
#280000
0%
#285000
1Q
18
19
15
b11000 B
b100110101 5"
b100110101 7"
b100110101 9"
b100110101 ;"
b100110101 ,"
b100110101 ."
b100110101 0"
b100110101 2"
b100110101 `
b100110101 b
b100110101 d
b100110101 f
b100110101 W
b100110101 Y
b100110101 [
b100110101 ]
b111100010 N
b111100010 P
b111100010 R
b111100010 T
b100110101 E
b100110101 G
b100110101 I
b100110101 K
03
02
b1001 p
b10111 o
b100 t
b10111 s
1%
#290000
0%
#295000
0Q
14
b10011010 E
b10011010 G
b10011010 I
b10011010 K
b1011110001 N
b1011110001 P
b1011110001 R
b1011110001 T
b10011010 W
b10011010 Y
b10011010 [
b10011010 ]
b10011010 `
b10011010 b
b10011010 d
b10011010 f
b10011010 ,"
b10011010 ."
b10011010 0"
b10011010 2"
b10011010 5"
b10011010 7"
b10011010 9"
b10011010 ;"
b11001 B
b11000 s
b11000 o
13
1%
#300000
0%
#305000
18"
1/"
1c
1Z
1Q
1H
17
b11010 B
b1001101 5"
b1001101 7"
b1001101 9"
b1001101 ;"
b1001101 ,"
b1001101 ."
b1001101 0"
b1001101 2"
b1001101 `
b1001101 b
b1001101 d
b1001101 f
b1001101 W
b1001101 Y
b1001101 [
b1001101 ]
b101111000 N
b101111000 P
b101111000 R
b101111000 T
b1001101 E
b1001101 G
b1001101 I
b1001101 K
12
b1010 p
b11001 o
b11001 s
1%
#310000
0%
#315000
07
05
04
09
08
b1000100110 E
b1000100110 G
b1000100110 I
b1000100110 K
b1010111100 N
b1010111100 P
b1010111100 R
b1010111100 T
b1000100110 W
b1000100110 Y
b1000100110 [
b1000100110 ]
b1000100110 `
b1000100110 b
b1000100110 d
b1000100110 f
b1000100110 ,"
b1000100110 ."
b1000100110 0"
b1000100110 2"
b1000100110 5"
b1000100110 7"
b1000100110 9"
b1000100110 ;"
b11011 B
b101 t
b11010 s
b1011 p
b11010 o
1%
#320000
0%
#325000
0Q
b11100 B
b1100010011 5"
b1100010011 7"
b1100010011 9"
b1100010011 ;"
b1100010011 ,"
b1100010011 ."
b1100010011 0"
b1100010011 2"
b1100010011 `
b1100010011 b
b1100010011 d
b1100010011 f
b1100010011 W
b1100010011 Y
b1100010011 [
b1100010011 ]
b1101011110 N
b1101011110 P
b1101011110 R
b1101011110 T
b1100010011 E
b1100010011 G
b1100010011 I
b1100010011 K
03
02
b1100 p
b11011 o
b110 t
b11011 s
1%
#330000
0%
#335000
b1110001001 E
b1110001001 G
b1110001001 I
b1110001001 K
b110101111 N
b110101111 P
b110101111 R
b110101111 T
b1110001001 W
b1110001001 Y
b1110001001 [
b1110001001 ]
b1110001001 `
b1110001001 b
b1110001001 d
b1110001001 f
b1110001001 ,"
b1110001001 ."
b1110001001 0"
b1110001001 2"
b1110001001 5"
b1110001001 7"
b1110001001 9"
b1110001001 ;"
b11101 B
b11100 s
b11100 o
1%
#340000
0%
#345000
08"
0/"
0c
0Z
1Q
0H
b11110 B
b1111000100 5"
b1111000100 7"
b1111000100 9"
b1111000100 ;"
b1111000100 ,"
b1111000100 ."
b1111000100 0"
b1111000100 2"
b1111000100 `
b1111000100 b
b1111000100 d
b1111000100 f
b1111000100 W
b1111000100 Y
b1111000100 [
b1111000100 ]
b11010111 N
b11010111 P
b11010111 R
b11010111 T
b1111000100 E
b1111000100 G
b1111000100 I
b1111000100 K
b11101 o
b11101 s
1%
#350000
0%
#355000
1H
0Q
1Z
1c
1/"
18"
19
18
b111100010 E
b111100010 G
b111100010 I
b111100010 K
b1001101011 N
b1001101011 P
b1001101011 R
b1001101011 T
b111100010 W
b111100010 Y
b111100010 [
b111100010 ]
b111100010 `
b111100010 b
b111100010 d
b111100010 f
b111100010 ,"
b111100010 ."
b111100010 0"
b111100010 2"
b111100010 5"
b111100010 7"
b111100010 9"
b111100010 ;"
b11111 B
b11110 s
b11110 o
1%
#360000
0%
#365000
08"
0/"
0c
0Z
0H
08
09
b100000 B
b1011110001 5"
b1011110001 7"
b1011110001 9"
b1011110001 ;"
b1011110001 ,"
b1011110001 ."
b1011110001 0"
b1011110001 2"
b1011110001 `
b1011110001 b
b1011110001 d
b1011110001 f
b1011110001 W
b1011110001 Y
b1011110001 [
b1011110001 ]
b100110101 N
b100110101 P
b100110101 R
b100110101 T
b1011110001 E
b1011110001 G
b1011110001 I
b1011110001 K
b11111 o
b11111 s
1%
#370000
0%
#375000
1H
1Z
1c
1/"
18"
15
19
18
b101111000 E
b101111000 G
b101111000 I
b101111000 K
b10011010 N
b10011010 P
b10011010 R
b10011010 T
b101111000 W
b101111000 Y
b101111000 [
b101111000 ]
b101111000 `
b101111000 b
b101111000 d
b101111000 f
b101111000 ,"
b101111000 ."
b101111000 0"
b101111000 2"
b101111000 5"
b101111000 7"
b101111000 9"
b101111000 ;"
b100001 B
b100000 s
b100000 o
1%
#380000
0%
#385000
1Q
08
09
05
b100010 B
b1010111100 5"
b1010111100 7"
b1010111100 9"
b1010111100 ;"
b1010111100 ,"
b1010111100 ."
b1010111100 0"
b1010111100 2"
b1010111100 `
b1010111100 b
b1010111100 d
b1010111100 f
b1010111100 W
b1010111100 Y
b1010111100 [
b1010111100 ]
b1001101 N
b1001101 P
b1001101 R
b1001101 T
b1010111100 E
b1010111100 G
b1010111100 I
b1010111100 K
13
b100001 o
b100001 s
1%
#390000
0%
#395000
0H
0Z
0c
0/"
08"
b1101011110 E
b1101011110 G
b1101011110 I
b1101011110 K
b1000100110 N
b1000100110 P
b1000100110 R
b1000100110 T
b1101011110 W
b1101011110 Y
b1101011110 [
b1101011110 ]
b1101011110 `
b1101011110 b
b1101011110 d
b1101011110 f
b1101011110 ,"
b1101011110 ."
b1101011110 0"
b1101011110 2"
b1101011110 5"
b1101011110 7"
b1101011110 9"
b1101011110 ;"
b100011 B
b100010 s
b1101 p
b100010 o
03
1%
#400000
0%
#405000
18
19
15
b100100 B
b110101111 5"
b110101111 7"
b110101111 9"
b110101111 ;"
b110101111 ,"
b110101111 ."
b110101111 0"
b110101111 2"
b110101111 `
b110101111 b
b110101111 d
b110101111 f
b110101111 W
b110101111 Y
b110101111 [
b110101111 ]
b1100010011 N
b1100010011 P
b1100010011 R
b1100010011 T
b110101111 E
b110101111 G
b110101111 I
b110101111 K
b100011 o
b100011 s
1%
#410000
0%
#415000
1H
1Z
1c
1/"
18"
14
b11010111 E
b11010111 G
b11010111 I
b11010111 K
b1110001001 N
b1110001001 P
b1110001001 R
b1110001001 T
b11010111 W
b11010111 Y
b11010111 [
b11010111 ]
b11010111 `
b11010111 b
b11010111 d
b11010111 f
b11010111 ,"
b11010111 ."
b11010111 0"
b11010111 2"
b11010111 5"
b11010111 7"
b11010111 9"
b11010111 ;"
b100101 B
b100100 s
b100100 o
13
1%
#420000
0%
#425000
08"
0/"
0c
0Z
0Q
0H
08
09
04
05
b100110 B
b1001101011 5"
b1001101011 7"
b1001101011 9"
b1001101011 ;"
b1001101011 ,"
b1001101011 ."
b1001101011 0"
b1001101011 2"
b1001101011 `
b1001101011 b
b1001101011 d
b1001101011 f
b1001101011 W
b1001101011 Y
b1001101011 [
b1001101011 ]
b1111000100 N
b1111000100 P
b1111000100 R
b1111000100 T
b1001101011 E
b1001101011 G
b1001101011 I
b1001101011 K
12
b1110 p
b100101 o
b100101 s
1%
#430000
0%
